PERIOD	VALUE
1990-04	291.83
1990-05	290.99
1990-06	281.71
1990-07	265.27
1990-08	259.14
1990-09	245.52
1990-10	218.55
1990-11	214.94
1990-12	218.23
1991-01	210.80
1991-02	196.88
1991-03	219.00
1991-04	226.88
1991-05	225.67
1991-06	227.97
1991-07	227.97
1991-08	206.10
1991-09	202.58
1991-10	210.50
1991-11	205.38
1991-12	196.15
1992-01	188.61
1992-02	203.67
1992-03	206.90
1992-04	197.91
1992-05	198.08
1992-06	199.10
1992-07	199.49
1992-08	185.68
1992-09	196.00
1992-10	216.42
1992-11	233.12
1992-12	232.86
1993-01	234.56
1993-02	249.68
1993-03	239.83
1993-04	238.30
1993-05	248.45
1993-06	253.54
1993-07	269.22
1993-08	263.20
1993-09	237.68
1993-10	244.66
1993-11	252.82
1993-12	256.60
1994-01	259.56
1994-02	266.44
1994-03	268.32
1994-04	266.82
1994-05	265.05
1994-06	263.10
1994-07	266.41
1994-08	267.20
1994-09	266.80
1994-10	261.11
1994-11	259.59
1994-12	262.69
1995-01	262.84
1995-02	263.46
1995-03	260.61
1995-04	278.84
1995-05	275.09
1995-06	275.02
1995-07	271.88
1995-08	271.10
1995-09	275.78
1995-10	261.56
1995-11	264.35
1995-12	266.40
1996-01	272.08
1996-02	273.53
1996-03	269.26
1996-04	266.70
1996-05	265.03
1996-06	254.62
1996-07	253.35
1996-08	258.21
1996-09	249.95
1996-10	242.35
1996-11	229.79
1996-12	223.09
1997-01	216.65
1997-02	224.48
1997-03	236.28
1997-04	227.79
1997-05	238.21
1997-06	262.07
1997-07	248.84
1997-08	265.44
1997-09	265.32
1997-10	259.36
1997-11	232.40
1997-12	220.72
1998-01	228.80
1998-02	235.70
1998-03	240.17
1998-04	247.09
1998-05	237.60
1998-06	215.19
1998-07	230.22
1998-08	226.50
1998-09	214.08
1998-10	202.06
1998-11	208.95
1998-12	209.50
1999-01	214.37
1999-02	223.99
1999-03	228.36
1999-04	221.69
1999-05	220.28
1999-06	223.44
1999-07	221.78
1999-08	217.94
1999-09	228.43
1999-10	254.13
1999-11	267.59
1999-12	271.98
2000-01	268.76
2000-02	322.12
2000-03	303.67
2000-04	314.81
2000-05	348.96
2000-06	369.79
2000-07	371.54
2000-08	387.63
2000-09	412.46
2000-10	399.45
2000-11	416.09
2000-12	418.08
2001-01	420.26
2001-02	413.61
2001-03	404.14
2001-04	414.43
2001-05	427.85
2001-06	413.50
2001-07	375.57
2001-08	314.47
2001-09	313.08
2001-10	297.13
2001-11	299.13
2001-12	319.91
2002-01	329.42
2002-02	331.10
2002-03	359.89
2002-04	374.37
2002-05	366.40
2002-06	373.81
2002-07	338.54
2002-08	355.25
2002-09	357.71
2002-10	372.61
2002-11	373.98
2002-12	376.34
2003-01	389.55
2003-02	424.08
2003-03	425.98
2003-04	396.46
2003-05	401.33
2003-06	398.25
2003-07	420.05
2003-08	434.28
2003-09	437.80
2003-10	436.75
2003-11	450.17
2003-12	461.65
2004-01	466.97
2004-02	452.87
2004-03	492.52
2004-04	487.98
2004-05	452.44
2004-06	441.62
2004-07	439.03
2004-08	465.57
2004-09	472.85
2004-10	465.75
2004-11	459.59
2004-12	439.78
2005-01	457.34
2005-02	458.16
2005-03	454.90
2005-04	456.39
2005-05	467.25
2005-06	484.00
2005-07	498.92
2005-08	501.17
2005-09	505.93
2005-10	527.96
2005-11	554.77
2005-12	560.25
2006-01	582.16
2006-02	595.95
2006-03	596.87
2006-04	623.27
2006-05	675.97
2006-06	644.83
2006-07	666.11
2006-08	651.25
2006-09	627.94
2006-10	577.35
2006-11	619.07
2006-12	570.93
2007-01	586.38
2007-02	615.43
2007-03	626.10
2007-04	642.38
2007-05	655.99
2007-06	647.46
2007-07	640.71
2007-08	629.09
2007-09	648.01
2007-10	690.01
2007-11	699.35
2007-12	733.45
2008-01	804.87
2008-02	1018.52
2008-03	1020.99
2008-04	1004.12
2008-05	1046.17
2008-06	1037.22
2008-07	957.78
2008-08	786.76
2008-09	680.31
2008-10	538.16
2008-11	547.46
2008-12	560.59
2009-01	657.38
2009-02	718.65
2009-03	761.75
2009-04	790.88
2009-05	733.74
2009-06	744.18
2009-07	709.95
2009-08	751.76
2009-09	789.33
2009-10	822.95
2009-11	843.99
2009-12	887.08
2010-01	966.60
2010-02	973.71
2010-03	1062.34
2010-04	1119.06
2010-05	1108.16
2010-06	1052.71
2010-07	997.95
2010-08	983.26
2010-09	1022.55
2010-10	1064.64
2010-11	1059.33
2010-12	1093.38
2011-01	1131.30
2011-02	1132.42
2011-03	1095.72
2011-04	1097.81
2011-05	1093.26
2011-06	1090.36
2011-07	1090.50
2011-08	1102.66
2011-09	1105.82
2011-10	974.37
2011-11	1009.96
2011-12	939.59
2012-01	971.08
2012-02	1049.09
2012-03	1046.27
2012-04	989.89
2012-05	922.35
2012-06	929.63
2012-07	914.54
2012-08	922.20
2012-09	1007.72
2012-10	1016.89
2012-11	987.70
2012-12	985.41
2013-01	1030.30
2013-02	1081.25
2013-03	1050.46
2013-04	972.41
2013-05	964.43
2013-06	924.05
2013-07	923.80
2013-08	964.07
2013-09	918.71
2013-10	878.15
2013-11	881.99
2013-12	829.83
2014-01	863.96
2014-02	851.66
2014-03	873.15
2014-04	855.03
2014-05	864.75
2014-06	859.24
2014-07	874.60
2014-08	866.36
2014-09	834.95
2014-10	783.69
2014-11	766.06
2014-12	777.56
2015-01	820.01
2015-02	781.34
2015-03	760.95
2015-04	769.11
2015-05	737.52
2015-06	712.79
2015-07	650.67
2015-08	630.28
2015-09	629.37
2015-10	637.09
2015-11	581.59
2015-12	572.09
2016-01	593.27
2016-02	644.19
2016-03	680.85
2016-04	694.34
2016-05	711.71
2016-06	692.90
2016-07	826.21
2016-08	857.65
2016-09	795.62
2016-10	777.97
2016-11	767.11
2016-12	734.88
2017-01	788.00
2017-02	807.08
2017-03	779.67
2017-04	759.70
2017-05	719.14
2017-06	727.29
2017-07	707.05
2017-08	750.70
2017-09	725.71
2017-10	698.04
2017-11	706.75
2017-12	675.22
2018-01	716.84
2018-02	708.01
2018-03	683.16
2018-04	655.83
2018-05	671.30
2018-06	666.10
2018-07	631.92
2018-08	625.54
2018-09	615.74
2018-10	637.70
2018-11	655.70
2018-12	624.06
2019-01	626.03
2019-02	629.08
2019-03	639.88
2019-04	670.35
