PERIOD	VALUE
1968-01	NA
1968-02	NA
1968-03	NA
1968-04	NA
1968-05	NA
1968-06	NA
1968-07	NA
1968-08	NA
1968-09	NA
1968-10	NA
1968-11	NA
1968-12	NA
1969-01	NA
1969-02	NA
1969-03	NA
1969-04	NA
1969-05	NA
1969-06	NA
1969-07	NA
1969-08	NA
1969-09	NA
1969-10	NA
1969-11	NA
1969-12	NA
1970-01	NA
1970-02	NA
1970-03	NA
1970-04	NA
1970-05	NA
1970-06	NA
1970-07	NA
1970-08	NA
1970-09	NA
1970-10	NA
1970-11	NA
1970-12	NA
1971-01	NA
1971-02	NA
1971-03	NA
1971-04	NA
1971-05	NA
1971-06	NA
1971-07	NA
1971-08	NA
1971-09	NA
1971-10	NA
1971-11	NA
1971-12	NA
1972-01	NA
1972-02	NA
1972-03	NA
1972-04	NA
1972-05	NA
1972-06	NA
1972-07	NA
1972-08	NA
1972-09	NA
1972-10	NA
1972-11	NA
1972-12	NA
1973-01	NA
1973-02	NA
1973-03	NA
1973-04	NA
1973-05	NA
1973-06	NA
1973-07	NA
1973-08	NA
1973-09	NA
1973-10	NA
1973-11	NA
1973-12	NA
1974-01	NA
1974-02	NA
1974-03	NA
1974-04	NA
1974-05	NA
1974-06	NA
1974-07	NA
1974-08	NA
1974-09	NA
1974-10	NA
1974-11	NA
1974-12	NA
1975-01	NA
1975-02	NA
1975-03	NA
1975-04	NA
1975-05	NA
1975-06	NA
1975-07	NA
1975-08	NA
1975-09	NA
1975-10	NA
1975-11	NA
1975-12	NA
1976-01	NA
1976-02	NA
1976-03	NA
1976-04	NA
1976-05	NA
1976-06	NA
1976-07	NA
1976-08	NA
1976-09	NA
1976-10	NA
1976-11	NA
1976-12	NA
1977-01	NA
1977-02	NA
1977-03	NA
1977-04	NA
1977-05	NA
1977-06	NA
1977-07	NA
1977-08	NA
1977-09	NA
1977-10	NA
1977-11	NA
1977-12	NA
1978-01	NA
1978-02	NA
1978-03	NA
1978-04	NA
1978-05	NA
1978-06	NA
1978-07	NA
1978-08	NA
1978-09	NA
1978-10	NA
1978-11	NA
1978-12	NA
1979-01	NA
1979-02	NA
1979-03	NA
1979-04	NA
1979-05	NA
1979-06	NA
1979-07	NA
1979-08	NA
1979-09	NA
1979-10	NA
1979-11	NA
1979-12	NA
1980-01	NA
1980-02	NA
1980-03	NA
1980-04	NA
1980-05	NA
1980-06	NA
1980-07	NA
1980-08	NA
1980-09	NA
1980-10	NA
1980-11	NA
1980-12	NA
1981-01	NA
1981-02	NA
1981-03	NA
1981-04	NA
1981-05	NA
1981-06	NA
1981-07	NA
1981-08	NA
1981-09	NA
1981-10	NA
1981-11	NA
1981-12	NA
1982-01	NA
1982-02	NA
1982-03	NA
1982-04	NA
1982-05	NA
1982-06	NA
1982-07	NA
1982-08	NA
1982-09	NA
1982-10	NA
1982-11	NA
1982-12	NA
1983-01	NA
1983-02	NA
1983-03	NA
1983-04	NA
1983-05	NA
1983-06	NA
1983-07	NA
1983-08	NA
1983-09	NA
1983-10	NA
1983-11	NA
1983-12	NA
1984-01	NA
1984-02	NA
1984-03	NA
1984-04	NA
1984-05	NA
1984-06	NA
1984-07	NA
1984-08	NA
1984-09	NA
1984-10	NA
1984-11	NA
1984-12	NA
1985-01	NA
1985-02	NA
1985-03	NA
1985-04	NA
1985-05	NA
1985-06	NA
1985-07	NA
1985-08	NA
1985-09	NA
1985-10	NA
1985-11	NA
1985-12	NA
1986-01	NA
1986-02	NA
1986-03	NA
1986-04	NA
1986-05	NA
1986-06	NA
1986-07	NA
1986-08	NA
1986-09	NA
1986-10	NA
1986-11	NA
1986-12	NA
1987-01	NA
1987-02	NA
1987-03	NA
1987-04	NA
1987-05	NA
1987-06	NA
1987-07	NA
1987-08	NA
1987-09	NA
1987-10	NA
1987-11	NA
1987-12	NA
1988-01	NA
1988-02	NA
1988-03	NA
1988-04	NA
1988-05	NA
1988-06	NA
1988-07	NA
1988-08	NA
1988-09	NA
1988-10	NA
1988-11	NA
1988-12	NA
1989-01	NA
1989-02	NA
1989-03	NA
1989-04	NA
1989-05	NA
1989-06	NA
1989-07	NA
1989-08	NA
1989-09	NA
1989-10	NA
1989-11	NA
1989-12	NA
1990-01	NA
1990-02	NA
1990-03	NA
1990-04	NA
1990-05	NA
1990-06	NA
1990-07	NA
1990-08	NA
1990-09	NA
1990-10	NA
1990-11	NA
1990-12	NA
1991-01	NA
1991-02	NA
1991-03	NA
1991-04	NA
1991-05	NA
1991-06	NA
1991-07	NA
1991-08	NA
1991-09	NA
1991-10	NA
1991-11	NA
1991-12	NA
1992-01	NA
1992-02	NA
1992-03	NA
1992-04	NA
1992-05	NA
1992-06	NA
1992-07	NA
1992-08	NA
1992-09	NA
1992-10	NA
1992-11	NA
1992-12	NA
1993-01	NA
1993-02	NA
1993-03	NA
1993-04	NA
1993-05	NA
1993-06	NA
1993-07	NA
1993-08	NA
1993-09	NA
1993-10	NA
1993-11	NA
1993-12	NA
1994-01	NA
1994-02	NA
1994-03	NA
1994-04	NA
1994-05	NA
1994-06	NA
1994-07	NA
1994-08	NA
1994-09	NA
1994-10	NA
1994-11	NA
1994-12	NA
1995-01	NA
1995-02	NA
1995-03	NA
1995-04	NA
1995-05	NA
1995-06	NA
1995-07	NA
1995-08	NA
1995-09	NA
1995-10	NA
1995-11	NA
1995-12	NA
1996-01	NA
1996-02	NA
1996-03	NA
1996-04	NA
1996-05	NA
1996-06	NA
1996-07	NA
1996-08	NA
1996-09	NA
1996-10	NA
1996-11	NA
1996-12	NA
1997-01	NA
1997-02	NA
1997-03	NA
1997-04	NA
1997-05	NA
1997-06	NA
1997-07	NA
1997-08	NA
1997-09	NA
1997-10	NA
1997-11	NA
1997-12	NA
1998-01	NA
1998-02	NA
1998-03	NA
1998-04	NA
1998-05	NA
1998-06	NA
1998-07	NA
1998-08	NA
1998-09	NA
1998-10	NA
1998-11	NA
1998-12	NA
1999-01	247.320
1999-02	256.480
1999-03	262.810
1999-04	263.950
1999-05	260.170
1999-06	252.680
1999-07	247.550
1999-08	242.100
1999-09	251.810
1999-10	290.800
1999-11	283.780
1999-12	280.500
2000-01	280.440
2000-02	305.500
2000-03	297.010
2000-04	295.330
2000-05	303.620
2000-06	300.400
2000-07	299.980
2000-08	303.150
2000-09	314.020
2000-10	316.000
2000-11	310.490
2000-12	302.930
2001-01	283.070
2001-02	284.100
2001-03	289.290
2001-04	292.070
2001-05	311.060
2001-06	316.920
2001-07	311.150
2001-08	302.800
2001-09	309.980
2001-10	312.590
2001-11	310.960
2001-12	309.000
2002-01	318.880
2002-02	339.740
2002-03	335.950
2002-04	341.750
2002-05	342.910
2002-06	335.970
2002-07	315.990
2002-08	316.950
2002-09	324.950
2002-10	322.650
2002-11	318.720
2002-12	326.910
2003-01	335.810
2003-02	333.670
2003-03	315.800
2003-04	302.350
2003-05	307.290
2003-06	305.710
2003-07	308.370
2003-08	321.630
2003-09	337.520
2003-10	323.800
2003-11	333.400
2003-12	331.990
2004-01	328.450
2004-02	319.910
2004-03	330.840
2004-04	337.370
2004-05	319.730
2004-06	322.730
2004-07	324.710
2004-08	328.300
2004-09	331.900
2004-10	336.410
2004-11	338.150
2004-12	330.830
2005-01	323.520
2005-02	325.200
2005-03	328.890
2005-04	331.500
2005-05	332.840
2005-06	353.780
2005-07	352.570
2005-08	355.980
2005-09	372.080
2005-10	390.850
2005-11	404.130
2005-12	429.470
2006-01	453.000
2006-02	464.910
2006-03	463.450
2006-04	498.240
2006-05	529.640
2006-06	471.780
2006-07	499.140
2006-08	492.810
2006-09	471.140
2006-10	465.060
2006-11	486.450
2006-12	476.340
2007-01	484.790
2007-02	508.810
2007-03	495.350
2007-04	503.200
2007-05	494.440
2007-06	488.850
2007-07	485.090
2007-08	488.050
2007-09	511.390
2007-10	530.220
2007-11	550.720
2007-12	551.920
2008-01	603.800
2008-02	626.620
2008-03	625.220
2008-04	578.130
2008-05	571.520
2008-06	571.950
2008-07	596.480
2008-08	560.370
2008-09	573.870
2008-10	609.380
2008-11	594.740
2008-12	608.900
2009-01	646.970
2009-02	734.500
2009-03	710.070
2009-04	676.740
2009-05	679.870
2009-06	676.270
2009-07	663.310
2009-08	665.710
2009-09	684.290
2009-10	703.910
2009-11	754.810
2009-12	775.500
2010-01	783.640
2010-02	800.170
2010-03	821.750
2010-04	855.970
2010-05	959.910
2010-06	1008.950
2010-07	937.210
2010-08	939.520
2010-09	972.800
2010-10	966.240
2010-11	1003.200
2010-12	1053.150
2011-01	1018.670
2011-02	1004.340
2011-03	1015.610
2011-04	1021.750
2011-05	1054.810
2011-06	1062.060
2011-07	1098.140
2011-08	1225.990
2011-09	1292.260
2011-10	1216.190
2011-11	1280.080
2011-12	1252.400
2012-01	1281.960
2012-02	1317.010
2012-03	1268.290
2012-04	1251.800
2012-05	1237.970
2012-06	1271.980
2012-07	1295.520
2012-08	1310.990
2012-09	1355.170
2012-10	1346.200
2012-11	1343.880
2012-12	1287.120
2013-01	1257.830
2013-02	1220.200
2013-03	1227.050
2013-04	1141.590
2013-05	1090.160
2013-06	1017.650
2013-07	981.590
2013-08	1010.370
2013-09	1010.530
2013-10	963.630
2013-11	946.570
2013-12	891.710
2014-01	912.640
2014-02	950.520
2014-03	967.060
2014-04	940.480
2014-05	937.860
2014-06	940.040
2014-07	969.340
2014-08	973.260
2014-09	961.330
2014-10	965.330
2014-11	943.290
2014-12	973.530
2015-01	1075.530
2015-02	1083.720
2015-03	1089.860
2015-04	1112.000
2015-05	1071.860
2015-06	1054.620
2015-07	1028.050
2015-08	1003.770
2015-09	1001.240
2015-10	1029.630
2015-11	1013.570
2015-12	983.320
2016-01	1008.310
2016-02	1077.030
2016-03	1122.510
2016-04	1095.030
2016-05	1113.450
2016-06	1133.660
2016-07	1208.500
2016-08	1196.090
2016-09	1183.330
2016-10	1150.510
2016-11	1147.370
2016-12	1091.050
2017-01	1122.560
2017-02	1159.310
2017-03	1152.170
2017-04	1181.370
2017-05	1127.510
2017-06	1123.080
2017-07	1073.210
2017-08	1085.560
2017-09	1104.870
2017-10	1089.530
2017-11	1093.320
2017-12	1069.370
2018-01	1092.310
2018-02	1079.270
2018-03	1074.630
2018-04	1086.920
2018-05	1101.950
2018-06	1097.680
2018-07	1059.810
2018-08	1041.380
2018-09	1028.320
2018-10	1057.470
2018-11	1074.910
2018-12	1097.780
2019-01	1131.040
2019-02	1162.820
2019-03	1151.750
2019-04	1150.500
